AIRLINE_ID,OP_UNIQUE_CARRIER,CARRIER_NAME
19031,2PQ,21 Air LLC
19032,Q5,40-Mile Air
19033,WRB,40-Mile Air
19034,CIQ,A/S Conair
19035,AAE,AAA Airlines
19036,ACI,AAA-Action Air Carrier Inc.
19037,WSK,AAR Western Skyways
19038,BZQ,Abaco Air, Ltd.
19039,4O,ABC Aerolineas SA de CV dba Interjet
19040,AAB,Abelag Aviation AG
19041,2AQ,ABS JETS A.S
19042,M3,ABSA-Aerolinhas Brasileiras
19043,ABX,ABX Air Inc
19044,ACD,Academy Airlines
19045,ZA,Accessair Holdings
19046,X7,ACE Belgium Freighters S.A.
19047,VX,Aces Airlines
19048,0CQ,ACM AIR CHARTER GmbH
19049,CRV,Acropolis Aviation Ltd.
19050,AON,Action Airlines
19051,ADR,Adirondack Airlines
19052,AAQ,Advance Air Charters
19053,AN,ADVANCED AIR, LLC
19054,ADV,Advantage Airlines
19055,EI,Aer Lingus Plc
19056,QTQ,Aer Turas Teoranta
19057,TPQ,Aerial Transit Company
19058,IN,Aerlinte Eireann Teoranta
19059,AWQ,Aermediterranea S.P.A.
19060,AFQ,Aero B Venezuela C.A.
19061,JR,Aero California
19062,AEO,Aero Coach
19063,LOS,Aero Commuter
19064,N6,Aero Continente
19065,ML,Aero Costa Rica
19066,AEF,Aero Freight
19067,BAA,Aero International Airlines
19068,AVQ,Aero Laguna S.A. De C.V.
19069,PL,Aero Peru
19070,BAQ,Aero Rentas De Coahuila S.A. De C.V.
19071,ERQ,Aero Trades (Western) Ltd.
19072,ATQ,Aero Tranportes Panamenos
19073,CLQ,Aero Transcolombiana
19074,XAA,Aero Union Corp
19075,ROQ,Aero Uruguay
19076,URQ,Aero Uruguay
19077,AVI,Aero Virgin Islands Corp.
19078,CGQ,Aerochago S.A.
19079,G3,Aerochago S.A.
19080,OD,Aerocondor
19081,AYQ,Aerodan S.A. De C.V.
19082,AJQ,Aerodynamics Inc.
19083,AJQ,Aerodynamics Inc. d/b/a SkyValue d/b/a SkyValue Airways
19084,EVQ,Aeroejecutivo S.A.
19085,SX,Aeroejecutivo S.A.
19086,EJQ,Aeroejecutivos C.A.
19087,VB,Aeroenlaces Nacionales, S.A. de C.V. d/b/a VivaAerobus
19088,SU,Aeroflot Russian Airlines
19089,AR,Aerolineas Argentinas
19090,DOQ,Aerolineas Dominicanas S A
19091,SZQ,Aerolineas El Salvador S A
19092,2K,Aerolineas Galapagos S A Aerogal
19093,LNQ,Aerolineas Latinas
19094,MUQ,Aerolineas Mundo
19095,RL,Aerolineas Nicaraguenses
19096,UYQ,Aerolineas Uruguayas S.A.
19097,5D,Aerolitoral
19098,3S,AeroLogic GmbH
19099,ABQ,Aeromar C. Por A.
19100,BQ,Aeromar C. Por A.
19101,VW,Aeromar C. Por A.
19102,OV,Aeromaritime
19103,QK,Aeromaritime
19104,RZZ,Aeromech Inc.
19105,AM,Aeromexico
19106,TRA,Aeromexico Travel
19107,AP,Aeromexpress
19108,QO,Aeromexpress
19109,7M,Aeromonterrey S.A.
19110,AXQ,Aeron International Airlines Inc.
19111,ACQ,Aeronautica De Cancun
19112,ABO,Aeronaves Boringuena Inc.
19113,XBQ,Aeronaves De Puerto Rico
19114,ADQ,Aeronaves Del Peru
19115,VH,Aeropostal Alas De Venezuel
19116,PUQ,Aeropuma
19117,BES,Aeroservices Executive
19118,WEQ,Aero-Services-Corporate
19119,EOQ,Aeroservicios Ecuatorianos
19120,RED,Aerosun International Airlines Inc.
19121,ASQ,Aerosur
19122,5L,Aerosur
19123,VV,Aerosvit Ukranian Airlines
19124,XK,Aerotal
19125,BDQ,Aerotaxis De Aguascalientes S.A. De C.V.
19126,RTQ,Aerotour Dominicano Cxa
19127,ATT,Aerotransit Inc.
19128,RSQ,Aerotransportes Entre Rios
19129,M7,Aerotransportes Mas De Crga
19130,MDQ,Aerotransportes Mas De Crga
19131,MY,Aerotransportes Mas De Crga
19132,6R,Aerounion ( Aerotransporte de Carga Union SA de CV
19133,6R,Aerounion Aerotransporte de Carga Union SA de CV
19134,ARQ,Aerovias Colombianas Arca
19135,4C,Aerovias de Intergracian Regional
19136,AV,Aerovias Nacl De Colombia
19137,AOQ,Aerovias S.A.
19138,VE,Aerovias Venezolanas-Avensa
19139,ZL,Affretair
19140,TZQ,Air 2000 Limited
19141,A7,Air 21
19142,RK,Air Afrique
19143,AHA,Air Alpha
19144,15Q,Air Alsie A/S
19145,5T,Air America
19146,GM,Air America
19147,STZ,Air America Inc.
19148,SAX,Air Americana
19149,FQ,Air Aruba
19150,D7,Air Asia X Berhad dba Airasia X
19151,EUQ,Air Atlanta Europe
19152,CC,Air Atlanta Icelandic
19153,CC,Air Atlanta Inc.
19154,ATN,Air Atlantic Airlines Inc.
19155,LU,Air Atlantic Dominicana
19156,ABH,Air Bahia
19157,BEQ,Air Belgium
19158,AB,Air Berlin PLC and CO
19159,BX,Air Busan
19160,BLQ,Air Bvi Limited
19161,OC,Air California Inc.
19162,AC,Air Canada
19163,QK,Air Canada Regional
19164,RV,Air Canada rouge LP
19165,APE,Air Cape
19166,AEQ,Air Caravane Inc.
19167,AGA,Air Cargo America Inc.
19168,ACO,Air Cargo Enterprises Inc.
19169,ACG,Air Cargo Express Inc.
19170,CJQ,Air Caribbean
19171,XC,Air Caribbean
19172,AIC,Air Caribbean
19173,ARB,Air Caribe International
19174,ATX,Air Carolina
19175,ASN,Air Casino
19176,ACT,Air Central Inc.
19177,ACK,Air Central Inc.
19178,ACP,Air Chaparral Inc.
19179,AQQ,Air Charter (Safa)
19180,WAQ,Air Charter Systems (Acs)
19181,1YQ,Air Charter, Inc d/b/a Air Flamenco
19182,JCM,Air Chico
19183,CA,Air China
19184,HB,Air Club International
19185,TAC,Air Colorado
19186,2Z,Air Comet S.A.
19187,A7,Air Comet S.A.
19188,R3,Air Company Yakutia
19189,SAS,Air Cortez International
19190,WAC,Air East Airlines
19191,AED,Air East Of Delaware Inc.
19192,UX,Air Europa
19193,UXQ,Air Europa
19194,AE,Air Europe Limited
19195,PE,Air Europe S.P.A.
19196,AEX,Air Excursions LLC
19197,X4,Air Excursions LLC
19198,0ZQ,Air Excursions LLC
19199,AIE,Air Express Inc.
19200,XAC,Air Express International Airlines
19201,OF,Air Finland Ltd.
19202,AFE,Air Florida Express
19203,QH,Air Florida Inc.
19204,GS,Air Foyle Limited
19205,RRT,Air Freight Express
19206,ZX,Air Georgian
19207,WV,Air Greco, Inc., d/b/a Wings Air
19208,OG,Air Guadeloupe
19209,HJ,Air Haiti S. A.
19210,36Q,Air Hamburg Luftverkehrsgesellschaft mbH
19211,XK,Air Hawaii
19212,AHC,Air Hawaii
19213,UX,Air Illinois Inc.
19214,ILL,Air Illinois Inc.
19215,AIN,Air Indiana
19216,JM,Air Jamaica Limited
19217,NQ,Air Japan Co
19218,OWS,Air Kentucky Air Lines
19219,AIK,Air Ketchum Idaho Inc.
19220,ALS,Air L.A.
19221,LRQ,Air Liberte
19222,IJ,Air Liberte Aka Aom Minerve
19223,IW,Air Liberte Aka Aom Minerve
19224,ALK,Air Link Airways
19225,KM,Air Malta
19226,UMQ,Air Manila Inc.
19227,CW,Air Marshall Islands Inc.
19228,2BQ,Air Medical Ltd.
19229,AJ,Air Micronesia Inc.
19230,AMW,Air Midwest Inc.
19231,ZV,Air Midwest Inc.
19232,TRO,Air Molakai
19233,AIM,Air Mont. Inc.
19234,AHQ,Air National
19235,XBZ,Air Natl Aircraft Sal & Ser
19236,ON,Air Nauru
19237,ANB,Air Nebraska Inc.
19238,ZIA,Air New Mexico
19239,AOR,Air New Orleans
19240,NZ,Air New Zealand
19241,TE,Air New Zealand
19242,NUQ,Air Niugini
19243,4N,Air North
19244,ANT,Air North/Nenana
19245,QK,Air Nova
19246,CB,Air One Inc.
19247,GX,Air Ontario Limited
19248,ARO,Air Oregon
19249,EKA,Air Pacific Inc.
19250,FJ,Air Pacific Ltd.
19251,FJ,Air Pacific Ltd.
19252,OP,Air Panama Internacional
19253,PER,Air Pennsylvania
19254,2P,Air Philippines Corp d/b/a Airphil Express, Philippines Airlines
19255,XAB,Air Polynesia d/b/a DHL Cargo
19256,APY,Air Polynesia Inc.
19257,FD,Air Puerto Rico Airlines
19258,APC,Air Puerto Rico Airlines
19259,ARA,Air Resorts Airlines
19260,RWG,Air Rovers Inc.
19261,ARS,Air Sedona
19262,HC,Air Senegal S.A
19263,JU,Air Serbia
19264,ASU,Air South
19265,ASH,Air South
19266,WV,Air South Inc.
19267,ASC,Air South Inc.
19268,ATH,Air Southeast
19269,APS,Air Spirit Inc.
19270,ZP,Air St. Thomas
19271,VIA,Air St. Thomas
19272,AAT,Air Sunshine Inc.
19273,TN,Air Tahiti Nui
19274,XDE,Air Train Inc.
19275,TS,Air Transat
19276,TWQ,Air Transat
19277,8C,Air Transport International
19278,VK,Air Tungaru Corporation
19279,USA,Air U.S.
19280,6U,Air Ukraine
19281,AVA,Air Vectors Airways
19282,AVR,Air Vermont Inc.
19283,CAV,Air Virginia
19284,AWA,Air West Airlines
19285,ZW,Air Wisconsin Airlines Corp
19286,ZW,Air Wisconsin Inc.
19287,WIS,Air Wisconsin Inc.
19288,ABI,Airbama Incorporated
19289,ZX,Airbc Ltd.
19290,ABX,Airborne Express Inc.
19291,MIW,Airborne Express Inc.
19292,RU,AirBridgeCargo Airlines Limited
19293,BGQ,Airbus Transport Internat'l
19294,3AA,Airgate Aviation, Inc.
19295,AIG,Airgo Inc.
19296,AI,Air-India
19297,IG,Airitaly S.P.A.
19298,ALE,Air-Lift Associates Inc.
19299,ARD,Airlift International
19300,RD,Airlift International Inc.
19301,RL,Airline Of The Americas
19302,ARM,Airmarc Airlines Inc.
19303,AKQ,Airmark Airlines Inc.
19304,MKQ,Airmark Corporation
19305,RI,Airpac Inc.
19306,XYZ,Airpac Inc.
19307,RSV,Air-Serve
19308,ARP,Airspur Helicopters Inc.
19309,RNQ,Airtours International Airways
19310,FL,AirTran Airways Corporation
19311,AVG,Airvantage
19312,AIT,Airways International
19313,ANM,Airways Of New Mexico Inc.
19314,ACS,Alamo Commuter Airlines
19315,APQ,Alas De Transporte International
19316,AAZ,Alaska Aeronautical Indust.
19317,AS,Alaska Airlines Inc.
19318,ACA,Alaska Central Airways Inc.
19319,KO,Alaska Central Express
19320,YTU,Alaska Central Express
19321,BF,Alaska International Air
19322,LSZ,Alaska Island Air Inc.
19323,AKS,Alaska Seaplane Service
19324,J5,Alaska Seaplane Service
19325,ALQ,Alberta Northern Airlines
19326,17Q,Albinati Aeronautics SA
19327,26Q,Albinati aviation Limited
19328,ALU,Aleutian Air
19329,RJ,Alia-(The) Royal Jordanian
19330,AZ,Alitalia-Linee Aeree Italia
19331,CEQ,All Canada Express
19332,AIA,All Island Air
19333,NH,All Nippon Airways Co.
19334,ALL,All Seasons Air Pacific
19335,EP,All Star Airlines Inc.
19336,JXQ,Allarco Developments Ltd.
19337,HRZ,Allegheny Airlines
19338,G4,Allegiant Air
19339,GLQ,Allegiant Air
19340,AIY,Alliance Air
19341,ACN,Alliance Airlines
19342,ALD,Allied Airlines
19343,XBR,Allstates Air Cargo Inc.
19344,LM,Alm Antillean Airlines
19345,KH,Aloha Air Cargo
19346,AQ,Aloha Airlines Inc.
19347,WP,Aloha Island Air
19348,PRV,Aloha Island Air
19349,APH,Alpha Air
19350,AAV,Alpine Air
19351,ASI,Alpine Air Services Inc.
19352,1FQ,Alsek Air
19353,AAR,Altair Airlines Inc.
19354,ALT,Altus Airlines
19355,XAE,Amerford Airways Inc.
19356,HP,America West Airlines Inc.
19357,AME,Americair Inc.
19358,AMT,American Air Transport
19359,AA,American Airlines Inc.
19360,TSF,American Central Airlines
19361,MQ,American Eagle Airlines Inc.
19362,AFA,American Flag Airlines Inc.
19363,AFG,American Flight Group
19364,AMI,American Inter-Island Inc.
19365,NI,American International Airways Inc.
19366,CDQ,American International Airways Inc.
19367,TZ,American Trans Air Inc.
19368,JH,Amerijet International
19369,M6,Amerijet International
19370,AMQ,Ameristar Air Cargo
19371,XPE,Amira Air GmbH
19372,ASD,Amistad Airlines
19373,9N,ANA & JP Express Co. Ltd.
19374,ED,Andes
19375,3CQ,Andrew Airways, Inc.
19376,AZQ,Anglo Airlines Ltd.
19377,PDQ,Antigua Paradise Airways
19378,AAB,Antilles Air Boats Inc.
19379,ADB,Antonov Company
19380,AUQ,Antonov Design Bureau
19381,IW,Aom Minerve S.A.
19382,MVQ,Aom Minerve S.A.
19383,7P,Apa International Air S.A.
19384,DRQ,Apa International Air S.A.
19385,APL,Appalachian Flying Service
19386,AFS,Arcata Flying Service
19387,5F,Arctic Circle Air Service
19388,ASE,Arctic Circle Air Service
19389,7S,Arctic Transportation
19390,RYA,Arctic Transportation
19391,AGQ,Argo S. A.
19392,AAL,Argosy Air Lines Inc.
19393,W3,Arik Air International
19394,RAQ,Arista International Airlines Inc.
19395,ARI,Arizona Aero Corp.
19396,ARZ,Arizona Airways
19397,AZE,Arizona Express
19398,K7,Arizona Express
19399,AZP,Arizona Pacific Airways
19400,API,Arizona Pacific Inc.
19401,MTA,Arkansas Traveler Airline
19402,AAP,Armstrong Air Service Inc.
19403,ARN,Arnold Aviation
19404,JW,Arrow Air Inc.
19405,WAP,Arrow Panama
19406,ARR,Arrowhead Airways Inc.
19407,IPQ,Aruba Cargo
19408,AG,Arubaanse Luchtvaart Maatschappij NV dba Aruba Airlines
19409,ASP,Asap Air Inc.
19410,PFQ,Asia Pacific
19411,OZ,Asiana Airlines Inc.
19412,AP,Aspen Airways Inc.
19413,APN,Aspen Airways Inc.
19414,AAA,Associated Aviation Act.
19415,ER,Astar Air Cargo Inc.
19416,ER,Astar USA, LLC
19417,AEC,Astec Air East Inc.
19418,ASR,Astor Air
19419,AST,Astro Airways
19420,XAF,Astro-Wing Airlines Inc.
19421,TZ,ATA Airlines d/b/a ATA
19422,ALX,Atlanta Express
19423,ANC,Atlantic Air
19424,DH,Atlantic Coast Airlines
19425,ATD,Atlantic Coast Airlines
19426,ACJ,Atlantic Coast Jet Inc.
19427,AGL,Atlantic Gulf Airlines
19428,ZY,Atlantic Gulf Airlines
19429,EV,Atlantic Southeast Airlines
19430,ATA,Atlantic Southeast Airlines
19431,ATS,Atlantis Airlines Inc.
19432,5Y,Atlas Air Inc.
19433,AAI,Audi Air Inc.
19434,AUX,Austin Express Inc.
19435,OS,Austrian Airlines
19436,HCQ,Av Atlantic
19437,AVC,Av Center Inc.
19438,AMR,AvAir
19439,VOQ,Avalon Aviation Ltd.
19440,AD,Avia Leasing Company
19441,AO,Aviacion Y Comercio S.A.
19442,6A,Aviacsa Airlines
19443,GU,Aviateca
19444,GU,Aviateca, S.A.
19445,SNA,Aviation Associates
19446,CZQ,Aviation Concepts
19447,AVL,Aviation Sales
19448,AVS,Aviation Services
19449,9V,Avior Airlines, C.A.
19450,0WQ,Avjet Corporation
19451,AOQ,Avon Jet AG
19452,J2,Azerbaijan Airlines CJSC
19453,35Q,Aztec Worldwide Airlines, Inc.  d/b/a  Aztec Airways
19454,AD,Azul Linhas Aereas Brazileiras S A
19455,UP,Bahamasair Holding Limited
19456,BCA,Baja Cortez Airlines
19457,8Q,Baker Aviation Inc.
19458,BKR,Baker Aviation Inc.
19459,BBQ,Balair Ag
19460,LZ,Balkan Bulgarian Airlines
19461,XAG,Ball Brothers Inc.
19462,BAN,Bangor International Air
19463,BAK,Bankair Inc.
19464,QOZ,Bar Harbor Airways
19465,BAR,Bard-Air Corp.
19466,BRK,Barken International
19467,BRW,Barrow Air
19468,SKL,Bas Airlines
19469,BYA,Bay Air
19470,JD,Beijing Capital Airlines
19471,4T,Belair Airlines Ltd.
19472,BM,Belize Air International Ltd.
19473,ST,Belize Airways Limited
19474,4H,Belize Trans Air
19475,7G,Bellair Inc.
19476,BEL,Bellair Inc.
19477,5B,Bellair Inc.
19478,CH,Bemidji Airlines
19479,BMJ,Bemidji Airlines
19480,BEN,Bennington Aviation Inc.
19481,8E,Bering Air Inc.
19482,BER,Bering Air Inc.
19483,1LQ,Bertelsmann Aviation GmbH
19484,IW,Best Airlines Inc.
19485,BEY,Beyer Aviation
19486,Z3,Bidzy Ta Hot Aana, Inc. d/b/a Tanana Air Service
19487,BIA,Big Island Air
19488,BSA,Big Sky Airlines Inc.
19489,GQ,Big Sky Airlines Inc.
19490,BHO,Bighorn Airways Inc.
19491,BG,Biman Bangladesh Airlines
19492,BIR,Birchwood Air Service
19493,BHK,Blackhawk Airways Inc.
19494,BUQ,Blue Bell Inc.
19495,24Q,Blue Jet SP Z o o
19496,TRQ,Blue Scandinavia Ab
19497,BNQ,BNJ Charter Company
19498,BOA,Boise Air Service
19499,BOI,Bo-S-Aire Airlines Inc.
19500,E9,Boston-Maine Airways
19501,PAM,Boston-Maine Airways
19502,4B,Boutique Air
19503,BCQ,Bradley Air Services Ltd.
19504,ALI,Brandt Air
19505,BN,Braniff Inc.
19506,BE,Braniff International Airlines Inc.
19507,BTQ,Brasair Transportes Aereos
19508,BZQ,Breeze Aviation Group DBA  Breeze
19509,BMT,Bremerton Aviation Inc.
19510,BAH,Brennan & Hargreaves Inc.
19511,6B,Britannia Airways A.B.
19512,BN,Britannia Airways GmbH
19513,BY,Britannia Airways Ltd.
19514,4E,British Airtours Limited
19515,BA,British Airways Plc
19516,TXQ,British Caribbean Airways
19517,BD,British Midland Airways Ltd.
19518,BW,British West Indian Airways
19519,VER,Britt Airlines Inc.
19520,RU,Britt Airways Inc.
19521,BRT,Britt Airways Inc.
19522,BRO,Brower Airways Inc.
19523,SN,Brussels Airlines N.V.
19524,BFQ,Buffalo Airways Inc.
19525,BAY,Burlington Aeroplane Co.
19526,BUR,Burlington Airways Inc.
19527,XAI,Burlington Northern Inc.
19528,BAC,Business Aircraft Corp.
19529,HQ,Business Express
19530,BEA,Business Express Airlines
19531,HIQ,Business Flights Ltd.
19532,BUH,Business Helicopters
19533,CAM,C & M Airlines
19533,5C,C.A.L Cargo Airlines
19534,CUQ,Caicos Caribbean Airways
19535,BR,Cal Air International Ltd.
19536,CIS,Cal Sierra Airlines
19537,BRQ,Caledonian Airways
19538,CLF,California Air Shuttle
19539,CAF,California Seaboard
19539,XAQ,Cam Air International Inc.
19540,2T,Canada 3000 Airlines Ltd.
19541,TTQ,Canada 3000 Airlines Ltd.
19542,CP,Canadian Airlines International Ltd.
19542,CWQ,Canadian Aviation Express
19543,C6,Canjet Airlines
19544,9K,Cape Air
19545,CPE,Cape Air
19546,6C,Cape Smythe Air Service
19547,CSY,Cape Smythe Air Service
19548,CCQ,Capital Cargo International
19549,PT,Capital Cargo International
19550,CPT,Capitol Air
19551,CPQ,Capitol Air Express Inc.
19552,CPA,Capitol Air Lines
19553,CL,Capitol International Inc.
19554,CVQ,Caraven S.A.
19555,GG,Cargo 360, Inc.
19556,W8,Cargojet Airways Ltd.
19557,W8,Cargojet Logistics
19558,P3,Cargologicair Limited
19559,CV,Cargolux Airlines International S.A
19560,C8,Cargolux Italia SpA
19561,CRB,Caribair
19562,DC,Caribbean Air Cargo Co Ltd.
19563,OHZ,Caribbean Air Services Inc.
19564,B8,Caribbean Airline Company
19565,BW,Caribbean Airlines Limited
19566,CRE,Caribbean Express Inc.
19567,ZQ,Caribbean Sun Airlines
19568,K8,Caribbean Sun Airlines, Inc. d/b/a World Atlantic Airlines
19569,WL,Caribbean Sun Airlines, Inc. d/b/a World Atlantic Airlines
19570,DQQ,Caribwest Airways Ltd.
19571,KW,Carnival Air Lines Inc.
19572,CBA,Carriba Air Inc.
19573,CZ,Cascade Airways Inc.
19574,CCD,Cascade Airways Inc.
19575,CSN,Casino Airlines
19576,CSA,Casino Airlines
19577,CXQ,Casino Express
19578,XP,Casino Express
19579,CAZ,CAT Aviation
19580,CAT,Catalina Airlines Inc.
19581,CVA,Catalina-Vegas Airlines
19582,CX,Cathay Pacific Airways Ltd.
19583,CSK,Catskill Airways Inc.
19584,2GQ,Cavok Air LLC
19585,KX,Cayman Airways Limited
19586,KXQ,Cayman Airways Limited
19587,SNB,Ccair
19588,5J,Cebu Air Inc d/b/a Cebu Pacific Air
19589,CSQ,Celtic Tech Jet Ltd.
19590,CNN,Centennial Airlines
19591,CEN,Cen-Tex Airlines Inc.
19592,GW,Central American Airlines
19593,XAJ,Central American International
19594,9M,Central Mountain Air
19595,CSL,Central States Air Lines
19596,GBA,Central States Airline
19597,WE,Centurion Cargo Inc.
19598,CTA,Century Airlines
19599,CET,Century Airlines (Cal)
19600,XAK,Century Airlines Inc.
19601,XBI,CF Air Freight
19602,LF,CFM Inc d/b/a Contour Airlines
19603,LF,CFM Inc d/b/a Contour Airlines d/b/a One Jet Shuttle
19604,C2,Challenge Air Cargo Inc.
19605,VV,Challenge Air International Inc.
19606,CAQ,Challenge Air Luftverkehrs GmbH
19607,VV,Challenge Air Transport Inc.
19608,XAL,Challenge Air Transport Inc.
19609,X7,Challenge Airlines (BE) S.A.
19610,MG,Champion Air
19611,CHD,Chandler Flyer
19612,CHL,Channel Flying Inc.
19613,KXZ,Chaparral Airlines Inc.
19614,CTR,Chartair
19615,1AQ,Charter Air Transport, Inc.
19616,CHE,Charter Airlines
19617,CHT,Charter One
19618,13Q,Chartright Air Inc.
19619,CHA,Chautauqua Airlines Inc.
19620,RP,Chautauqua Airlines Inc.
19621,ACL,Check-Air Inc.
19622,CCO,Chester County Aviation
19623,CGO,Chicago Air Taxi
19624,CGA,Chicago Airlines
19625,C8,Chicago Express Airlines
19626,CGE,Chicago Express Airlines
19627,CI,China Airlines Ltd.
19628,CK,China Cargo Airline
19629,MU,China Eastern Airlines
19630,CZ,China Southern Airlines
19631,CSM,Chisum Flying Service
19632,CHI,Chitina Air Service
19633,CHO,Choi Aviation Inc.
19634,CHS,Christman Air System
19635,A2,Cielos De Peru
19636,XBP,Circle Airfreight Corp.
19637,H2,City Bird
19638,1QQ,City Wings Inc dba Seaflight
19639,CCA,Cityhop
19640,V6,CLAIRMONT HOLDINGS d/b/a VI AIRLINK
19641,CTL,Coastal Air Transport
19642,CPC,Coastal Plains Commuter Inc.
19643,COC,Cochise Airlines Inc.
19644,XAM,Cohlmia Aviation
19645,COK,Coker Aviation Inc.
19646,CAC,Coleman Air Transport
19647,9L,Colgan Air
19648,NCP,Colgan Air
19649,CJ,Colgan Airways Inc.
19650,EXA,Columbia Pacific Airlines
19651,CLB,Columbia Pacific Airlines
19652,OH,Comair Inc.
19653,CMI,Comair Inc.
19654,CMB,Combs Airways Inc.
19655,1ZQ,Comlux Aruba NV
19656,05Q,Comlux Aviation, AG
19657,0YQ,Comlux Malta Ltd.
19658,0UQ,Comlux Malta, Ltd.
19659,CMD,Command Airways Inc.
19660,COM,Commutair
19661,C5,Commutair Aka Champlain Enterprises, Inc.
19662,CMT,Commutair Aka Champlain Enterprises, Inc.
19663,CRA,Commuter Airlines
19664,CMR,Commuter Airlines (Ca)
19665,AZ,Compagnia Aerea Italiana
19666,3SD,Compagnie Aerienne Inter Regionale Express dba Air Antilles Express & Air Guyane
19667,AF,Compagnie Natl Air France
19668,CF,Compan. De Aviacion Faucett
19669,DO,Compania Dominicana De Avia
19670,MX,Compania Mexicana De Aviaci
19670,CM,Compania Panamena (Copa)
19671,CP,Compass Airlines
19672,Y4,Concesionaria Vuela Compania De Aviacion SA de CV (Volaris)
19673,JCO,Concierge U Ltd. d/b/a Jet Concierge Club
19674,DE,Condor Flugdienst
19675,DFQ,Condor Flugdienst
19676,CRQ,Conner Air Lines Inc.
19677,4S,Conner Air Lines Inc.
19678,XAN,Conner Air Lines Inc.
19679,CDQ,Connie Kalitta Services
19680,CQI,Conquest Airline Corp.
19681,CO,Continental Air Lines Inc.
19682,BRT,Continental Express
19683,CS,Continental Micronesia
19684,GOF,Copper State Airlines
19685,COR,Coral Air Inc.
19686,CRP,Corporate Air
19687,OIZ,Corporate Air Inc.
19687,3C,Corporate Airlines
19688,CEA,Corporate Airlines
19689,21Q,Corporate Flight Management Inc.
19690,21Q,Corporate Flight Management Inc.d/b/a Crystal Luxury Air
19691,0TQ,Corporatejets, XXI
19692,SS,Corsair
19693,SS,Corsair International
19694,CYQ,Corse Air International
19695,7H,Corvus Airlines, Inc d/b/a Era Aviation d/b/a Ravn Alaska
19696,COS,Cosmopolitan Comm. Airline
19696,CTH,Cothron Aviation
19697,COB,Cotton Belt Aviation Inc.
19698,COU,Courtesy Air Service Inc.
19699,CAI,Crawford Aviation Inc.
19700,CRH,Cresent Medivac
19701,CRT,Crested Butte Air Service
19702,KWZ,Crown Air
19703,CRO,Crown Airways Inc.
19704,CRN,Crown Aviaiton Inc.
19705,MNZ,Cumberland Airlines
19705,CUS,Custom Air Service
19706,CTQ,Custom Air Transport
19707,OK,Czech Airlines
19708,OK,Czechoslovak Airlines
19709,XAO,Dallas Flight Center
19710,DA,Dan Air Services
19711,DAN,Danbury Airlines
19712,SE,Das Air Cargo
19713,ANI,Dash Air Corporation
19714,1XQ,Dassault Falcon Service
19715,DAU,Dauphin Island Airways
19716,DWN,Dawn Air
19717,0BQ,DCA
19718,DEC,Decatur Aviation
19719,DL,Delta Air Lines Inc.
19720,2JQ,Delux Public Charter LLC
19721,DST,Desert Airlines
19722,DPI,Desert Pacific Airlines Inc.
19723,DPA,Desert Pacific Airways
19724,DSA,Desert Sun Airlines
19725,DVO,Devoe Airlines
19726,DHQ,DHL Aero Expresso
19727,DHL,DHL Airlines Inc.
19728,ER,DHL Airways
19729,XBW,DHL Airways
19730,DIC,Dickman Aviation Services
19731,DH,Discovery Airways Inc.
19732,DOL,Dolphin Airways Inc.
19733,DXA,Dolphin Express
19734,DEA,Downeast Airlines Inc.
19735,DFS,Downeast Flying Service
19736,B0,Dreamjet SAS Dba La Compagnie
19737,DIA,Drummond Island Air
19738,DUL,Dulles Express
19739,K8,Dutch Caribbean Airlines
19740,1BQ,Dynamic Airways, LLC
19741,8D,Dynamic Aviation, Inc. d/b/a Beacon
19742,NPT,E. J. A. Newport Inc.
19742,EGA,Eagle Airline
19743,V9,Eagle Airlines
19744,ECA,Eagle Airlines
19745,EEZ,Eagle Aviation Inc.
19746,EGC,Eagle Canyon Airlines
19747,EGC,Eagle Canyon Airlines d/b/a Scenic Airlines
19748,YR,Eagle Canyon Airlines d/b/a Scenic Airlines
19749,EGL,Eagle Commuter Airlines Inc.
19750,EGJ,Eagle Jet Charter
19751,ECR,East Coast Airways
19752,EHA,East Hampton Aire Inc.
19753,EIA,East. Indiana Aviation Sale
19754,ZE,Eastar Jet Co Ltd.
19755,EA,Eastern Air Lines Inc.
19756,1BQ,Eastern Airlines f/k/a Dynamic Airways, LLC
19757,EE,Eastern Airlines Group Inc.
19758,EAS,Eastern Caribbean Airways
19759,ECI,Eastern Carolina Aviation
19760,PV,Eastern Provincial Airways
19760,EAT,Eastman Airways Inc.
19761,W9,Eastwind Airlines Inc.
19762,ECL,Eclipse Airlines
19763,EU,Ecuatoriana De Aviacion
19764,EDE,Ede Aire
19765,8R,Edelweiss Air Ag
19766,MS,Egyptair
19767,LY,El Al Israel Airlines Ltd.
19768,EAU,Elitavia Malta Limited
19769,2HQ,Elite Airways LLC
19770,ELL,Ellis Air Taxi Inc.
19771,A0,Elysair d/b/a L'Avion
19772,EMA,Emerald Airlines
19773,OD,Emerald Airlines Inc.
19774,TNQ,Emery Worldwide Airlines
19775,EK,Emirates
19776,ERO,Empire Aero Service
19777,UR,Empire Airlines Inc.
19777,EM,Empire Airlines Inc.
19778,EPA,Empire Airlines Inc.
19779,EMP,Empire Airlines Inc.
19780,EU,Empresa Ecuatoriana De Avia
19781,9E,Endeavor Air Inc.
19782,ENT,Enterprise Airlines Inc.
19783,MQ,Envoy Air
19784,E0,EOS Airlines, Inc.
19786,ERA,Era Aviation
19787,7H,Era Aviation
19787,29Q,Erickson Helicopters
19788,ERI,Erie Airways Inc.
19788,E7,Estafeta Carga Aereas
19789,ET,Ethiopian Airlines
19790,EY,Etihad Airways
19791,MM,Euro Atlantic Airways
19792,GJ,Eurofly S.p.A
19793,QY,European Air Transport Leipzig GmbH
19794,E72,European Aviation Air Charter
19795,EW,Eurowings GmbH
19796,BR,Eva Airways Corporation
19796,EVA,Evanston Aviation
19797,E9,Evelop Airlines SL
19798,EZ,Evergreen International Inc.
19799,JN,Excel Airways
19800,1JQ,Exec Direct Aviation Services Limited
19801,EEX,Exec Express
19802,EET,Exec Express II
19803,EBQ,Execaire Aviation Ltd.
19804,EXT,Executive Air Charter
19805,,Executive Airlines
19806,OW,Executive Airlines
19807,EAQ,Executive Airlines, SL
19808,EAI,Executive Aviation Inc.
19809,EXC,Executive Charter
19810,EFA,Executive Four Winds
19810,EXR,Executive Transport
19811,EXQ,Export Air Del Peru S.A.
19812,XPA,Express Air d/b/a Sunrise
19813,EXP,Express Airlines II
19814,REX,Express Airlines Inc.
19815,JKQ,Express One International Inc.
19816,TCQ,Express.Net Airlines
19817,EV,ExpressJet Airlines Inc.
19818,XE,ExpressJet Airlines Inc.
19819,RU,ExpressJet Airlines Inc.
19820,EV,ExpressJet Airlines LLC
19821,FSA,F.S. Air Service
19822,IFQ,FAI rent-a-jet AG
19823,FCQ,Falcon Air Express
19824,FAC,Falcon Airways Inc.
19825,FAA,Falwell Aviation Inc.
19826,FWA,Far West Airlines
19827,FRW,Farwest Airlines
19828,FAQ,Fast Air Carrier Ltd.
19828,UD,Fast Air Carrier Ltd.
19829,FC,Fast Colombia SAS d/b/a Viva Colombia
19830,VH,Fast Colombia SAS d/b/a Viva Colombia
19831,FAR,Federal Armored Service Inc.
19832,FM,Federal Express Corporation
19833,FX,Federal Express Corporation
19834,FED,Federal Express Corporation
19835,FNQ,Fine Airlines Inc.
19836,AY,Finnair Oy
19837,7F,First Air
19838,TZQ,First Choice Airways
19839,FFQ,Five Star Airlines
19840,8N,Flagship Airlines Inc.
19841,FGS,Flagship Airlines Inc.
19842,9R,Flagship Express Services
19843,07Q,Flair Airlines Ltd.
19844,FLM,Flamenco Airways Inc.
19845,PTQ,Flight International
19846,XAU,Flight Line Inc.
19847,FLR,Flirite Inc.
19848,FLA,Florida Air
19849,FDA,Florida Airlines Inc.
19850,PA,Florida Coastal Airlines
19851,ZO,Florida Express Inc.
19852,PRQ,Florida West Airlines Inc.
19853,OJ,Fly Jamaica Airways Limited
19854,FYB,Flying Boat
19855,OP,Flying Boat Inc.
19856,OGZ,Flying Boat Inc.
19857,MT,Flying Colours Airlines Ltd.
19858,FYQ,Flying Group Lux S.A.
19859,0Q,Flying Service N.V.
19860,FT,Flying Tiger Line Inc.
19861,Y7,Flyjet Limited d/b/a Silverjet
19862,FOR,Ford-Aire Inc.
19863,FOS,Foster Aviation
19864,FRS,Four Star Aviation
19865,FRA,Freedom Air
19866,F8,Freedom Airlines d/b/a HP Expr
19867,FDM,Freedom Airlines Inc.
19868,BF,French bee
19869,WST,Friday Harbor Seaplanes
19870,HAR,Friendship Air Alaska
19871,FL,Frontier Airlines Inc.
19872,F9,Frontier Airlines Inc.
19873,FRT,Frontier Commuter
19874,2F,Frontier Flying Service
19875,FFS,Frontier Flying Service
19876,FH,Frontier Horizon Inc.
19877,GBQ,G5 Executive Ag
19878,1UQ,Gainjet Aviation SA
19879,GAQ,Galaxy Airlines Inc.
19880,GAL,Galena Air Service
19881,WGQ,Gateway Aviation Limited
19882,GSC,GCS Air Service
19883,SNC,Gelco Courier Services Inc.
19884,22Q,Gem Air LLC
19885,GR,Gemini Air Cargo Airways
19886,GCQ,General Air Cargo
19887,GAS,General Aviation Inc.
19888,GEQ,Gestair, S.A.
19889,GH,Ghana Airways Corporation
19890,GIQ,Global International Airways Corp.
19891,IGA,Global Jet Austria, GmbH
19892,SVW,Global Jet Luxembourg, Sa
19893,GSQ,Global Supply System
19894,Y2,Globespan Airways Limited d/b/a Flyglobespan
19895,GCQ,Glock Aviation GmbH
19896,G7,GoJet Airlines LLC d/b/a United Express
19897,GCA,Golden Carriage Aire
19898,GSA,Golden Gate Airlines Inc.
19899,KIN,Golden Pacific Airlines
19900,GSL,Golden South Airlines Inc.
19901,GST,Golden State Airlines
19902,GLW,Golden West Airlines Co.
19902,GDW,Golden West Airlines Inc.
19903,GRA,Gorda Aero Service
19904,GPA,GP Express Airlines
19905,QD,Grand Airways Inc.
19906,NTX,Grand Airways Inc.
19907,GRD,Grand Canyon Airlines
19908,YR,Grand Canyon Airlines, Inc. d/b/a Grand Canyon Airlines d/b/a Scenic Airlines
19909,GCH,Grand Canyon Helicopters
19910,GV,Grant Aviation
19911,GS,Grant Aviation
19912,G9,Grant Aviation
19912,GRT,Grant Aviation
19913,FD,Great American Airways
19914,FDQ,Great American Airways
19915,ZK,Great Lakes Airlines
19916,GLA,Great Lakes Aviation Ltd.
19917,ZK,Great Lakes Aviation Ltd.
19917,TRI,Great Plains Airlines Inc.
19918,IJ,Great Wall Airlines Company Limited
19919,ROS,Great Western Airlines Inc.
19920,GWA,Great Western Aviation
19921,GHA,Green Hills Aviation Ltd.
19922,GMA,Green Mountain Airlines Ltd.
19923,GG,Grenada Airways Ltd.
19924,GAV,Gromer Aviation Inc.
19925,GF,Gulf Air Company
19926,GAT,Gulf Air Taxi
19927,GF,Gulf Air Transport Inc.
19928,GFQ,Gulf And Caribbean Cargo
19929,GFC,Gulf Flite Center
19930,3M,Gulfstream Int
19931,GLF,Gulfstream Int
19932,GUL,Gull Air Inc.
19932,GUN,Gunnel Aviation Inc.
19933,HX,Guy-America Airways Inc.
19933,GY,Guyana Airways Corporation
19934,H6,Hageland Aviation Service
19935,HAG,Hageland Aviation Service
19936,HU,Hainan Airlines Company Limited
19937,HNS,Haines Airways
19938,KB,Haiti Air
19939,HFQ,Haiti Air Freight Intl
19940,TV,Haiti Trans Air
19941,WD,Halisa Air
19942,HAQ,Hamilton Jetport Limited
19943,CHF,Hammonds Commuter Air Serv.
19944,HAQ,Hapag Lloyd Flug.
19945,EXC,Hapag-Lloyd Executive GmbH
19946,X3,Hapag-Lloyd Express GmbH
19947,HSV,Harbor Air Service
19948,OAK,Harbor Airlines Inc.
19949,HQQ,Harlequin Air Corporation
19950,HQ,Harmony Airways
19950,HBQ,Harris Air Services
19951,LHA,Havasu Airlines
19952,XAH,Hawaii Pacific Air
19952,CLD,Hawaii Pacific Helicopters
19952,HA,Hawaiian Airlines Inc.
19953,HWK,Hawking Corporation
19953,XCA,Hawkins And Powers Aviation
19954,HLQ,Heavylift Cargo Airlines Lt
19955,JB,Helijet International Inc.
19956,HET,Helitac Aviation
19957,HEL,Helitrans
19958,XDC,Hemisphere Air Charter
19959,HFS,Hensley Flying Service Inc.
19960,HRG,Heritage Airlines
19961,HEU,Heussler Air Service Corp
19961,VY,Highland Express Airways
19962,37Q,Hillwood Airways, LLC  f/k/a   ATX Air Services, LLC
19963,ZS,Hispaniola Airways
19964,HQ,Hmy Airways Inc.
19965,HOQ,Holidair Airways
19966,HOL,Holiday Airlines Inc.
19967,HB,Homer Air
19968,HX,Hong Kong Airlines Limited
19969,KA,Hong Kong Dragonair
19970,UO,Hong Kong Express Airways Limited
19971,QX,Horizon Air
19972,HOZ,Horizon Air
19973,HEP,Hub Express
19974,HYA,Hyannis Aviation
19975,HYP,Hyperion Aviation Ltd. dba Hyperion
19976,IB,Iberia Air Lines Of Spain
19977,XBX,Icb International Airlines
19978,FI,Icelandair
19979,III,Idee Industries Inc.
19980,IAT,Iliamna Air Service
19981,IAT,Iliamna Air Taxi
19982,V8,Iliamna Air Taxi
19982,IMP,Imperial Airlines Inc.
19983,IXQ,Inair
19983,DH,Independence Air
19984,INQ,Independent Air Inc.
19985,IND,Indiana Airways Inc. (Pa)
19986,RID,Indiana Airways Inc. (Reid
19987,IPI,Indo-Pacific International
19988,7N,Inland Aviation Services
19989,INL,Inland Aviation Services
19990,INA,Inland Empire Airlines Inc.
19991,CKI,Inlet Airlines
19992,7I,Insel Air International B V
19993,8I,Inselair Aruba NV
19994,ND,Intair
19995,0GQ,Inter Island Airways, d/b/a Inter Island Air
19996,ITQ,Interamericana De Aviacion
19997,XBJ,International Air Service
19998,XPQ,International Cargo Xpress
19998,1HQ,International Jet Management GmbH
19999,XDD,International Parcel Express Inc.
19999,QB,Inter-Quebec (Intair)
20000,IRQ,Interstate Airlines Inc.
20001,XBL,Interstate Airlines Inc.
20002,IDQ,Intl Air Service Co. Ltd.
20003,HOR,Iowa Airlines
20004,IOW,Iowa Airways
20005,ICF,Iowa City Flying Service
20006,IR,Iran National Airlines Corp
20007,IA,Iraqi Airways
20008,ICQ,Iscargo Hf
20009,ICH,Island Air Charters
20010,IEX,Island Air Express
20011,WP,Island Air Hawaii
20012,0Z,Island Air Service
20013,9I,Island Air Service
20014,2O,Island Air Service
20015,IAS,Island Air Service
20016,ISL,Island Airlines
20017,ACH,Island Airlines Hawaii Inc.
20018,1DQ,Island Airlines LLC
20019,IPS,Island Express
20019,GRO,Isle Royale Seaplane Serv.
20020,6H,Israir Airlines
20021,2EQ,J&M Alaska Air Tours, Inc. d/b/a Alaska Air Transit
20022,V5,J.D.Valenciana De Aviation
20023,JI,Jade Cargo International
20024,JO,Jalways Co. Ltd.
20025,JAQ,Jamaica Air Freighters
20026,JZ,Japan Air Charter Co. Ltd.
20027,JL,Japan Air Lines Co. Ltd.
20028,JD,Japan Air System Co. Ltd.
20028,QK,Jazz Aviation LP
20029,7C,Jeju Air Co Ltd.
20029,JER,Jer-Don Air
20030,JX,Jes Air Ltd.
20031,9W,Jet Airways (India) Limited
20032,SI,Jet America Airlines Inc.
20033,PP,Jet Aviation Business Jets AG
20034,27Q,Jet Aviation Flight Services, Inc.
20035,TJ,Jet Charter Service Inc.
20036,JCQ,Jet Connection Businessflight Ag
20037,XBC,Jet East Inc.
20038,BDE,Jet Express
20039,JIQ,Jet Fleet Intl. Airlines
20040,1IQ,Jet link AG
20041,XAR,Jet Way Inc.
20042,LS,Jet2.com
20043,JTA,Jetaire Airlines Inc.
20044,8J,Jetall Airways
20045,JAG,JetAlliance Flugbetriebs d/b/a JAF Airservice
20046,B6,JetBlue Airways
20046,0J,JetClub AG
20046,SG,Jetsgo
20047,JQ,Jetstar Airways Pty Limited
20048,LF,Jettrain Airlines
20049,JMA,Jim Air Inc.
20050,LJ,Jin Air Co Ltd.
20051,BRQ,Jmc
20052,1NQ,JSC The 224th Flight Unit State Airlines
20053,3KQ,Junipogo, LLC
20054,1EQ,KaiserAir, Inc.
20055,J5,Kalinin Aviation LLC d/b/a Alaska Seaplanes
20056,KAQ,Kalitta Air LLC
20057,KLQ,Kalitta Charters II
20058,KR,Kar-Air Oy
20059,KAT,Katmai Air
20060,KEA,Keene Airways
20061,KWQ,Kelowna Flightcraft Air Cha
20062,KA1,Kenmore Air Express, LLC (subsidiary of Kenmore Air Harbor)
20063,KAH,Kenmore Air Harbor
20064,KQ,Kenya Airways PLC
20065,KET,Ketchikan Air Service
20066,KEE,Key Airlines
20067,KEQ,Key Airlines Inc.
20068,ZN,Key Airlines Inc.
20069,38Q,Key Lime Air Corporation
20070,KFS,King Flying Service
20070,XDH,Kitty Hawk Air Cargo
20071,KR,Kitty Hawk Aircargo
20072,CDQ,Kitty Hawk International
20073,KP,Kiwi International
20074,KL,Klm Royal Dutch Airlines
20075,XAS,Klondike Air Inc.
20075,KAI,Knight Airlines Inc.
20075,KOD,Kodiak Airways Inc.
20076,KE,Korean Air Lines Co. Ltd.
20077,7B,Krasair
20078,KU,Kuwait Airways Corp.
20079,JF,L.A.B. Flying Service Inc.
20080,LAB,L.A.B. Flying Service Inc.
20081,LAH,La Helicopter
20082,LAA,La Skycab Airline
20083,LR,Lacsa
20084,UC,Ladeco
20084,LCT,Lake Coastal
20085,NUM,Lake State Airways
20085,LAS,Lake Union Air Service
20086,LLA,Lakeland Aviation
20087,GKQ,Laker Airways
20088,7Z,Laker Airways
20089,6F,Laker Airways Inc.
20089,4M,LAN Argentina
20090,L7,Lan Colombia
20091,4M,Lan Dominica
20092,XL,Lan Ecuador
20093,LP,Lan Peru Airlines
20094,LAN,Lancer Aviation Inc.
20095,LA,Lan-Chile Airlines
20096,NI,Lanica
20097,MJ,Lapa-Lineas Aereas Privadas
20097,LAP,Lapsa
20098,LAR,Laredo Air
20099,J6,Larrys Flying Service
20100,LFS,Larrys Flying Service
20101,LVA,Las Vegas Airlines
20102,LCQ,Latcr
20102,NG,Lauda Air Luftfahrt Ag
20103,LDQ,Laudamotion Executive
20104,LDM,Laudamotion GmbH
20105,LAW,Lawrence Aviation
20105,7Z,Lb Limited
20106,LEQ,Le Point Air
20107,LC,Legend Airlines
20107,LZQ,Leisure International Airways Ltd.
20107,LEX,L'Express
20108,LIQ,Liat (1974) Limited
20108,2NQ,LIMA NY Corp d/b/a Fly The Whale d/b/a Tailwind
20108,LV,Linea Aeropostal Venezolana
20109,LGQ,Lineas Aereas Allegro
20109,ZE,Lineas Aereas Azteca
20110,LC,Lineas Aereas Del Caribe
20110,LUQ,Lineas Aereas La-Tur Sa
20111,MYQ,Lineas Aereas Mayas (Lamsa)
20112,PZ,Lineas Aereas Paraguayas
20113,LSQ,Lineas Aereas Suramerican
20114,LB,Lloyd Aereo Boliviano S. A.
20114,LKN,Loken Aviation
20115,14Q,London Air Services Limited
20116,HMZ,Long Island Airlines
20116,2KQ,Longtail Aviation Ltd.
20117,LOQ,Lorair Ltd.
20118,GE,Lufthansa Cargo Airlines
20118,LH,Lufthansa German Airlines
20119,LT,Luftransport-Unternehmen
20119,LG,Luxair
20120,LXQ,Luxaviation Germany GmbH
20120,2RQ,Luxaviation S A
20121,L2,Lynden Air Cargo Airlines
20122,L4,Lynx Aviation d/b/a Frontier Airlines
20123,L3,Lynx Aviation d/b/a Frontier Airlines
20123,0IQ,Lynx Aviation d/b/a Frontier Airlines
20124,MNA,M & N Aviation
20125,MAC,Mackey International Inc.
20126,DM,Maersk Air I/S
20127,H5,Magadan Airlines
20127,MAG,Magum Airlines
20128,MHO,Mahalo Air
20129,0FQ,Maine Aviation Aircraft Charter, LLC
20130,1PQ,Makani Kai Air Charters
20131,MH,Malaysian Airline System
20132,DB,Maleth Aero AOC Ltd.
20132,MA,Malev Hungarian Airlines
20133,SOA,Mall Airways Inc.
20134,MEA,Manhattan Express
20134,MUA,Manu'a Air Transport
20135,MRC,Marco Island Airways Inc.
20136,3AQ,Maritime Helicopters, Inc.
20137,HER,Markair Express
20138,BF,Markair Inc.
20139,MAR,Marshall's Air Inc.
20140,MP,Martinair Holland N.V.
20141,MSQ,Martinair Holland N.V.
20142,06Q,Master Top Linhas Aereas Ltd.
20142,Q4,Master Top Linhas Aereas, Ltda.
20143,MAA,Maui Airlines
20144,MAV,Maverick Airways
20145,MAX,Maxair Inc.
20145,MY,MAXjet
20146,MU,Mcclain Airlines Inc.
20147,ZFZ,Mcphillips Flying Service
20148,28Q,Menagerie Enterprises Inc d/b/a Monarch Air
20148,IG,Meridiana S.p.A
20149,MLX,Merlin Express
20150,MRR,Merrimack Aviation Inc.
20151,YV,Mesa Airlines Inc.
20151,MAS,Mesa Airlines Inc.
20152,XJ,Mesaba Airlines
20153,MES,Mesaba Airlines
20154,CAP,Metro Air Northeast N Y
20155,ANO,Metro Air Northeast Vermont
20155,MDU,Metro Airlines
20156,EME,Metro Express
20157,MEX,Metro Express 11
20158,MTR,Metroflight Airlines
20159,0LQ,Metropix UK, LLP.
20160,MET,Metroplex Airlines
20161,GJ,Mexicargo
20162,MG,MGM Grand Air Inc.
20163,M2,MHS Aviation GmbH
20164,MMQ,Miami Air International
20165,GL,Miami Air International
20166,RJS,Michigan Airways Inc.
20167,XAT,Michigan Peninsula Airways
20168,MCO,Mid Continental Airlines In
20169,MPC,Mid Pacific Air Corp.
20170,HO,Mid Pacific Airlines Inc.
20170,MPA,Mid Pacific Airlines Inc.
20171,MAE,Mid-Atlantic Exp. Airlines
20172,MDC,Midcontinent Airlines
20173,ME,Middle East Airlines S.A.L.
20173,VL,Mid-South Aviation Inc.
20173,RCA,Mid-South Aviation Inc.
20174,MIS,Midstate Airlines Inc.
20175,ML,Midway Airlines Inc.
20176,JI,Midway Airlines Inc.
20177,MIY,Midway Aviation Inc.
20178,GCS,Midway Commuter
20179,2M,Midway Express Airlines
20179,YX,Midwest Airline, Inc.
20181,MST,Midwest Aviation
20182,YX,Midwest Express Airlines
20183,MAQ,Millardair Limited
20183,MLL,Miller Air Transportersinc
20184,BFG,Million Air
20185,LBQ,Millon Air Inc.
20186,MIN,Minuteman Aviation Inc.
20187,WSU,Mission Air
20188,MVA,Mississippi Valley Airlines
20189,25Q,Mjet GmbH
20190,7G,MK Airlines Ltd.
20191,W4,Mn Aviation, Inc.
20192,MHK,Mohawk Airlines
20193,0KQ,Mokulele Flight Services, Inc.
20194,MW,Mokulele Flight Services, Inc.
20195,ZB,Monarch Airlines
20195,MGQ,Montana Austria Flugetrieb
20196,MOQ,Morningstar Air Express
20197,KN,Morris Air Corporation
20198,MTX,Mountain Air Express
20199,SLA,Mountain Bird/Salmon Air
20200,S6,Mountain Bird/Salmon Air
20201,MWA,Mountain West Airlines
20202,WCI,Mountainwest Airlines
20202,MTV,Mst Aviation
20203,0MQ,Multi-Aero, Inc. d/b/a Air Choice One
20204,3E,Multi-Aero, Inc. d/b/a Air Choice One
20204,XY,Munz Northern Airlines Inc.
20205,MRQ,Murray Air
20205,RNQ,Mytravel Airways
20206,NJA,N. J. Merrimack Airlines
20206,NWQ,N. W. Territorial Airways
20206,NET,Nacnet
20207,XBV,Nal Inc.
20207,NAS,Nasville Eagle
20207,NAQ,Nationair
20207,NAT,National Air
20208,N8,National Air Cargo Group Inc d/ba National Airlines
20209,MRQ,National Air Cargo Group, Inc. d/b/a Murray Air
20210,NAC,National Air Commuter Inc.
20211,N7,National Airlines
20211,AI,National Aviation Company of India Limited d/b/a Air India
20212,NTQ,National Aviation Consult.
20213,NCA,National Commuter Airlines
20214,NFA,National Florida Airlines
20215,N5,Nations Air Express Inc.
20216,3BQ,Nealco Air Charter Services, Inc.  d/b/a  Watermakers Air
20216,NOS,Neos S.P.A
20216,BNQ,NetJets Large Aircraft Company L.L.C.
20216,NJE,NetJets Transportes Aereos, S.A.
20217,NEV,Nevada Airlines
20218,NVX,Nevis Express
20219,NEB,New Born Wings Inc.
20220,NEW,New England Airlines Inc.
20221,NY,New York Air Inc.
20221,NYH,New York Helicopter Corp.
20222,NHA,Newair Flight Inc.
20223,6Y,Nicaraguense De Aviacion Sa
20224,WT,Nigeria Airways Ltd.
20225,KZ,Nippon Cargo Airlines
20225,NLQ,Nolinor Aviation
20226,NEC,Nor East Commuter Airlines
20227,NKQ,Norcanair
20228,AIQ,Norontair
20229,XG,North American Airlines
20230,,North American Airlines
20231,AMA,North American Airlines Inc.
20231,NFQ,North Cariboo Flying Serv.
20232,NSQ,North Coast Air Services
20233,NEQ,North East Cargo Airlines
20234,NPA,North Pacific Airlines Inc.
20235,NXQ,North Vancouver Air
20235,NTH,Northaire
20235,NCE,Northcoast Executive
20236,NER,Northeast Express Regional
20237,NEX,Northeast Express Regional
20237,QS,Northeastern International Airways
20237,NC,Northern Air Cargo Inc.
20238,HU,Northern Air Cargo Inc.
20239,XAW,Northern Air Cargo Inc.
20240,NRN,Northern Airlines Inc.
20241,NGL,Northern Eagle Airways Inc.
20241,DIR,Northern Star
20242,NN,Northward Airlines Ltd.
20243,NW,Northwest Airlines Inc.
20244,NWS,Northwest Seaplanes
20245,D8,Norwegian Air International Ltd.
20246,DY,Norwegian Air Shuttle ASA
20247,DI,Norwegian Air UK Limited
20248,NOQ,Novair Airlines Ab
20248,NVQ,Novair International Airways Ltd.
20249,NAP,Npa Inc.
20250,ONQ,Nunasi-Central Airlines Ltd.
20251,OB,Oasis International Airlines S.A.
20251,MMH,Ocean Airways Inc.
20252,OCR,Ocean Reef Airways Inc.
20252,0VQ,Ocean Sky (UK) Limited
20253,TCE,Oceanair Line
20253,O6,Oceanair Linhas Aereas S A
20254,OFF,Offshore Logistics
20254,4B,Olson Air Service
20255,OAS,Olson Air Service
20256,OA,Olympic Airways
20257,OHA,Omaha Aviation
20257,OMK,Omak Aviation Airlines
20258,F2,Omega Air Holdings d/b/a Focus Air
20258,X9,Omni Air Express
20259,X9,Omni Air International LLC
20260,OMN,Omni Pacific Airline
20261,OMI,Omniflight Airways
20262,OMH,Omniflight Helicopters
20263,OWQ,Ontario Worldair Limited
20263,0OQ,Open Skies
20264,LV,OPENSKIES SAS
20265,20Q,Orange Air
20266,R2,Orenburg Airlines
20267,OPQ,Orion Air
20268,ORI,Orion Air Inc.
20269,OTT,Otter Air
20270,UNQ,Overseas National Airways
20271,OZ,Ozark Air Lines Inc.
20272,OZA,Ozark Air Lines Inc.
20273,MZ,P.N. Merpati Nusantara Air.
20274,PSA,P.S. Air Freight Inc.
20275,GA,P.T. Garuda Indonesian Arwy
20276,RC,P/F Atlantic Airways
20277,PCR,Pacair
20278,PCQ,Pace Airlines
20278,XDA,Pacific Air Express Inc.
20279,3F,Pacific Airways, Inc.
20280,XBT,Pacific Alaska Airlines Inc.
20280,PCL,Pacific Cal Air
20281,HPZ,Pacific Coast Airlines
20281,6P,Pacific East Air Inc.
20282,VB,Pacific Express
20283,PIQ,Pacific International Airlines
20283,SFQ,Pacific International Airlines Inc.
20284,KW,Pacific Interstate Airlines
20284,QT,Pacific Interstate Airlines
20285,PIA,Pacific Island Airways
20286,9J,Pacific Island Aviation
20286,PAV,Pacific Island Aviation
20287,PMA,Pacific Missionary Aviation
20287,ATO,Pacific National Airways
20287,PS,Pacific Southwest Airlines
20288,PW,Pacific Western Airlines
20289,LW,Pacific Wings Airlines
20289,ANE,Pacific Wings Airlines
20290,PFA,Pacificair
20290,PK,Pakistan International Airlines
20291,K2,Paklook Air, Inc d/b/a/ Airlift Alaska
20291,K2,Paklook Air, Inc d/b/a/ Airlift Alaska d/b/a/ Yute Commuter Service
20292,RAN,Pan Am Express
20293,PN,Pan American Airways Corp.
20294,PA,Pan American World Airways
20295,OP,Pan American World Airways
20296,PA,Pan American World Airways
20297,PA,Pan American World Airways
20298,7Q,Pan American World Airways Dominicana
20299,PNQ,Panagra Airways
20299,PNM,Panama Aviation
20300,PAT,Panorama Air Tours
20300,OI,Paradise Airways
20301,PRD,Paradise Island Airlines
20302,XAY,Pat Air
20303,PAF,Pathfinder Aviation
20304,PAQ,Patriot Airlines Inc.
20304,PEA,Pearson Aircraft
20305,PD,Pem-Air Limited
20306,PNA,Peninsula Airways Inc.
20306,KS,Peninsula Airways Inc.
20307,PE,People Express Airlines Inc.
20308,PAI,Permian Airways Inc.
20308,PET,Petro Aviation Corp.
20309,XBM,Phh Air Inc.
20310,PR,Philippine Airlines Inc.
20310,PHL,Phillips Airlines
20310,PHX,Phoenix Airlines
20311,PCA,Piasa Commuter Airlines
20312,17,Piedmont Airlines
20312,PT,Piedmont Airlines
20313,HNA,Piedmont Airlines
20313,PI,Piedmont Aviation Inc.
20313,PM,Pilgrim Aviation & Airlines
20314,PMT,Pilgrim Aviation & Airlines
20314,PNS,Pine State Airlines
20315,PHR,Pinehurst Airlines Inc.
20315,9E,Pinnacle Airlines Inc.
20316,PNR,Pioneer Airways
20317,PLA,Planes Inc.
20318,PLQ,Planet Airways
20318,Z3,PM Air, LLC
20319,Z3Q,PM Air, LLC
20319,POC,Pocono Airlines Inc.
20320,PO,Polar Air Cargo Airways
20320,0HQ,Polar Airlines de Mexico d/b/a Nova Air
20321,PLZ,Polar Airways Inc.
20322,POL,Polar International
20322,34Q,Polaris Aviation Solutions, LLC
20322,LO,Polskie Linie Lotnicze
20322,PH,Polynesian Airlines Ltd.
20323,POQ,Polyot Airlines
20323,POM,Pompano Airways
20324,PON,Ponderosa Aviation Inc.
20324,PD,Porter Airlines, Inc.
20325,POA,Potomac Air
20325,PVA,Precision Valley Aviation
20326,SIQ,Premiair
20326,PM,Prescott Support Company, Inc.
20327,XV,Presidential Airways Inc.
20327,COL,Presidential Express
20327,OI,Prestige Airways
20328,FE,Primaris Airlines Inc.
20328,PRM,Prime Air Inc.
20329,PF,Primera Air Scandinavia
20330,PU,Primeras Lineas Uruguays For International
20330,JVQ,Prince Aviation
20330,PEQ,Prince Edward Air
20331,PRA,Princeton Aviation Corp
20331,PBQ,Privatair
20332,PJQ,Private Jet Expeditions
20332,5J,Private Jet Expeditions
20333,XL,Pro Air Inc.
20333,P9,Pro Air Inc.
20334,PRR,Pro Air Services
20334,XBH,Profit Airlines Inc.
20334,PRH,Promech
20334,Z3,Promech
20335,PPQ,Propair
20335,PRP,Propheter Aviation
20336,PBA,Provincetown Boston
20336,16,PSA Airlines Inc.
20337,OH,PSA Airlines Inc.
20337,VEE,PSA Airlines Inc.
20337,30Q,Public Charters, Inc. d/b/a North Country Sky d/b/a Regional Sky d/b/a Texas Sky
20338,PRN,Puerto Rico Intl Airlines
20338,XAZ,Purolator Sky Courier Inc.
20339,QF,Qantas Airways Ltd.
20339,QR,Qatar Airways (Q.C.S.C)
20340,OMQ,Quassar De Mexico
20340,5G,Queen Air
20340,QWE,Qwest Commuter
20340,RDR,Rader Aviation
20341,RMV,Ram Aviation
20341,REA,Realwest Airlines
20342,3DQ,Rectrix Aviation, Inc.
20342,RY,Redcoat Air Cargo Limited
20343,RDW,Redwing Airways
20344,RVQ,Reeve Air Alaska, LLC
20344,RV,Reeve Aleutian Airways Inc.
20344,RVA,Reeves Air
20345,2R,Regal Air
20346,RGQ,Regency Air
20346,4R,Regent Air Corporation
20346,3C,Regions Air, Inc.
20347,RLQ,Reliant Airlines
20347,QQ,Reno Air Inc.
20348,REQ,Renown Aviation
20349,YX,Republic Airline
20349,RW,Republic Airlines
20350,REP,Republic Airlines
20351,YX,Republic Airlines
20352,RC,Republic Airlines Inc.
20353,RES,Resort Airlines Inc.
20353,RSC,Resort Commuter
20353,1TQ,Rhoades Aviation dba Transair
20354,RIQ,Rich International Airways
20354,RIC,Richardson Aviation
20355,RIO,Rio Airways Inc.
20355,EWA,Rio Grande Air
20355,RIV,Riverside Air Service
20356,JCZ,Rocky Mountain Airways Inc.
20356,RMH,Rocky Mountain Helicopters
20357,ROE,Roederer Aviation Inc.
20357,9R,Rosenbalm Aviation Inc.
20357,GWE,Ross Aviation Inc.
20357,QN,Royal Air
20358,AT,Royal Air Maroc
20358,ROY,Royal American Airways Inc.
20358,RHA,Royal Hawaiian Airways Inc.
20359,YM,Royal West Airlines
20360,ROA,Royal West Airways Inc.
20361,RAL,Royal-Air Ltd.
20362,OQ,Royale Airlines Inc.
20363,RAY,Royale Airlines Inc.
20363,7S,Ryan Air f/k/a Arctic Transportation
20363,RYQ,Ryan Aviation Corporation
20364,RYQ,Ryan International Airlines
20365,RD,Ryan International Airlines
20366,SSA,S. S. Airways Inc.
20366,SN,Sabena Belgian World Air.
20366,SBA,Saber Aviation Inc.
20366,EH,Saeta Airlines
20367,SAJ,Sajen Air Inc.
20368,SLR,Salair
20368,XDF,Salair Inc.
20370,SAL,Sallee's Aviation
20371,MB,Samoa Airlines Inc.
20372,SMO,Samoa Aviation Inc.
20373,SAM,Samoan Airlines Inc.
20374,SJA,San Juan Airlines Inc.
20374,S3,Santa Barbara Airlines, C.A
20374,S4,Sata Internacional
20374,SV,Saudi Arabian Airlines Corp
20374,SIQ,Scanair
20375,SK,Scandinavian Airlines Sys.
20375,ASW,Scenic Airlines
20376,HSZ,Scenic Airlines Inc.
20377,YR,Scenic Airlines Inc. d/b/a Scenic Airlines
20377,SKM,Scheduled Skyways
20378,TR,Scoot Tigerair Pte Ltd d/b/a Scoot
20378,I4,Scott Air LLC dba Island Air Express
20379,1VQ,Scott Air LLC dba Island Air Express
20380,SCN,Scott Aviation
20380,3EQ,Scott Aviation, LLC  d/b/a  Silver Air
20381,SAH,Sea Air Shuttle
20382,SEB,Seaborne Aviation
20383,SEB,Seaborne Virgin Islands, Inc.
20383,SCO,Seaco Airlines Inc.
20383,ESQ,Seagreen Air Transport
20384,SEG,Seagull Air Service
20385,SAI,Seair Alaska Airlines Inc.
20386,SST,Seaplane Shuttle Transport
20386,K5,Seaport Airlines, Inc.
20387,K5,SeaPort Airlines, Inc. d/b/a Wings of Alaska
20387,STG,Sedalia Marshall Boonvl Stg
20388,SEM,Semo Aviation Inc.
20388,FS,Serv De Trans Aereos Fuegui
20389,SXQ,Serv De Trans Aereos Fuegui
20390,SMQ,Serv. Aerolineas Mexicanas
20391,8D,Servant Air Inc.
20392,SVA,Servant Air Inc.
20393,SER,Service Aviation Inc.
20394,SH,Servicio Aereo De Honduras
20394,8L,Servicio Aereo Leo Lopez
20395,CMQ,Servicio De Carga Aerea Sa
20396,BIQ,Servicios Aeronauticos Z S.A. De C.V.
20397,VC,Servicios Avensa
20397,SFO,Sfo Helicopter Airlines Inc.
20397,SHS,Shasta Air Inc.
20398,SHV,Shavano Air Inc.
20398,SNE,Shawnee Airlines
20398,S5,Shuttle America Corp.
20398,SHA,Shuttle America Corp.
20399,3U,Sichuan Airlines Co Ltd.
20400,SSS,Sierra Express Inc.
20400,SXP,Sierra Expressway
20401,SFS,Sierra Flite Service Inc.
20401,SNV,Sierra Nevada Airways
20401,SI,Sierra Pacific Airlines
20402,TSA,Sierra Pacific Airlines
20402,ZPQ,Silk Way Airlines, LLC
20403,7L,Silk Way West Airlines
20404,3M,Silver Airways
20404,SKS,Silver Kris Services Ltd.
20404,SIA,Silver State Airlines
20405,MQ,Simmons Airlines
20405,SIM,Simmons Airlines
20405,SQ,Singapore Airlines Ltd.
20406,7J,Skagway Air Service
20406,N5,Skagway Air Service
20407,SKG,Skagway Air Service
20407,SLQ,Sky King Inc.
20407,23Q,Sky King Inc.
20408,WI,Sky Lease Cargo
20408,SOE,Sky One Express
20408,RS,Sky Regional Airlines Inc.
20408,KV,Sky Regional Airlines Inc.
20409,SEQ,Sky Service F.B.O.
20410,1I,Sky Trek International Airlines
20411,QG,Sky West Aviation Inc.
20411,Q7,SkyBahamas Airlines Ltd.
20412,SX,Skybus Airlines, Inc.
20413,SYB,Skybus Express Airlines
20413,FW,Skybus Inc.
20413,SJQ,Skycharter (Malton) Ltd.
20414,STQ,Skycraft Air Transport Inc.
20414,FVA,Skycraft Inc.
20414,KFQ,Skyfirst Limited
20415,TIS,Skyfreight
20415,GW,SkyGreece Airlines S A
20416,SKJ,Sky-Jet
20417,SBQ,Skyjet S.A.
20417,SCT,Skyline Airlines
20418,PEQ,SkyLink Express Inc.
20418,BC,Skymark Airlines Inc.
20419,SYM,Skymaster
20420,5G,Skyservice Airlines, Inc.
20420,7S,Skystar International Inc.
20421,HUB,Skystream Airlines
20422,SKT,Skytrain
20422,AL,Skyway Airlines
20422,SKW,Skyway Airlines
20423,ZYZ,Skyway Aviation Inc.
20423,OO,SkyWest Airlines Inc.
20424,SEA,SkyWest Airlines Inc.
20424,PKQ,Skyworld Airlines Inc.
20424,SLO,Slocum Air Inc.
20424,2E,Smokey Bay Air Inc.
20424,SKB,Smokey Bay Air Inc.
20425,Q7,Sobelair
20426,TX,Soc.Nouvelle Air Guadeloupe
20426,MM,Sociedad Aeronautica De Med
20427,4S,Sol Air (Aero Hunduras)
20427,23Q,Songbird Airways Inc.
20427,SOL,Soonair Lines Inc.
20428,SA,South African Airways
20428,SCY,South Coast Airways
20429,HK,South Pacific Island Airway
20430,SOP,South Pacific Island Airway
20431,AND,Southcentral Air Inc.
20432,JX,Southeast Airlines
20433,SLZ,Southeast Airlines Inc.
20434,WEB,Southeast Alaska Airlines
20435,COT,Southeastern Commuter
20436,9S,Southern Air Inc.
20437,SAQ,Southern Air Transport Inc.
20438,FCA,Southern Airlines Inc.
20439,FTI,Southern Airways
20440,9X,Southern Airways Express, dba Mokulele Airlines
20441,SEP,Southern Express Airways
20442,SFQ,Southern Frontier Air Trans
20443,AVZ,Southern Jersey Airways
20443,SSP,Southern Seaplane
20443,A4,Southern Wind Airlines
20443,WN,Southwest Airlines Co.
20444,JK,Spanair S.A.
20445,BXQ,Spantax S. A.
20445,LDQ,Sparfell Luftfahrt GmbH
20446,SNK,Spernak Airways Inc.
20446,NK,Spirit Air Lines
20446,SPH,Spirit Helicopter
20447,SFQ,Sportsflight Airways Inc.
20448,SPR,Sportsman Flying Service
20448,SPG,Springdale Air
20449,SPF,Springfield Air Service
20450,SDQ,St. Lucia Airways Limited
20451,SFI,Stahmannfarms Inc.
20452,S6,Star Air A/S
20452,SRA,Star Aviation
20452,STR,Star Aviation Corporation
20452,1SQ,Star Marianas Air Inc.
20453,STA,State Airlines Inc.
20453,STW,Stateswest Airlines
20453,SRL,Sterling Air Service
20454,NBQ,Sterling Airways A/S
20455,NB,Sterling Cargo
20455,SMC,Stopher Mechanical Inc.
20455,SBN,Suburban Airlines
20455,DUZ,Summit Airlines Inc.
20456,1RQ,Sun Air Express LLC dba Sun Air International
20500,OOZ,Sun Aire Lines
20501,SYQ,Sun Country Airlines
20502,SY,Sun Country Airlines
21007,SY,Sun Country Airlines d/b/a MN Airlines
21008,SUI,Sun International Airways
21022,JX,Sun Jet International Inc.
21022,SPQ,Sun Pacific International
21029,SVL,Sun Valley Airlines
21035,SUX,Sunair Express LLC
21036,SUT,Sunbelt
21040,JAM,Sunbelt Airlines Inc.
21059,SKI,Sunbird Inc.
21061,WS,Suncoast Airlines Inc.
21061,PRO,Sundance Airlines
21069,SAC,Sundorph Aeronautical Corp.
21070,ASW,Sunrise Airlines Inc.
21074,SUA,Sunshine Airlines
21080,SWA,Sunwest Airlines
21084,WG,Sunwing Airlines Inc.
21089,SM,Sunworld International Airlines
21094,JK,Sunworld International Airways Inc.
21099,SSQ,Superior Airways Limited
21107,PY,Surinam Airways Limited
21111,2UQ,Svenskt Industriflyg AB
21116,09Q,Swift Air, LLC
21117,09Q,Swift Air, LLC d/b/a Eastern Air Lines d/b/a Eastern
21118,SWT,Swift Aire Lines Inc.
21121,10Q,Swiss Air Ambulance
21126,LX,Swiss International Airlines
21131,SO,Swiss World Airways
21132,SR,Swissair Transport Co. Ltd.
21134,WO,SWOOP Inc.
21136,RB,Syrian Arab Airlines
21142,TA,Taca International Airlines
21147,TQQ,Taca Peru
21148,TEQ,TAG Aviation (Malta) Ltd.
21158,0QQ,TAG Aviation (UK) Ltd.
21160,0RQ,TAG Aviation Espana S.L.
21161,FP,TAG Aviation S.A.
21161,TAT,Talarik Creek Air Taxi
21167,2OQ,Talofa Airways Limited
21171,EQ,Tame Linea Aerea del Ecuador Tme EP
21177,4E,Tanana Air Service
21181,TAN,Tanana Air Service
21186,4EQ,Tanana Air Service
21192,R0,Tantalus Air Ltd. d/b/a Harbour Air d/b/a Harbour Air Seaplanes
21196,TP,Tap-Portuguese Airlines
21201,TAQ,Taquan Air Service
21202,HRQ,Tar Airlines
21205,RO,Tarom Romanian Air Transpor
21212,5V,Tatonduk Outfitters Limited d/b/a Everts Air Alaska and Everts Air Cargo
21217,3Z,Tatonduk Outfitters Limited d/b/a Everts Air Alaska and Everts Air Cargo
21217,3K,Tatonduk Outfitters Limited d/b/a Tatonduk Flying Service
21217,TTD,Tatonduk Outfitters Limited d/b/a Tatonduk Flying Service
21221,BJQ,Taxirey S.A. De C.V.
21226,THQ,T-Bird Air Inc.
21231,TAL,Tejas Airlines Inc.
21236,XP,TEM Enterprises dba  Avelo Airlines
21242,TYE,Temsco Airlines
21242,TEN,Tennessee Airways Inc.
21247,TER,Terre Haute Air Commuter
21248,TRR,Territorial Airlines
21253,TXY,Texas Airways
21253,TXA,Texas National Airlines
21258,TG,Thai Airways International Ltd.
21261,LP,The Hawaii Express Inc.
21262,MAI,The Maui Commuter
21266,TTM,The Time Machine
21271,MT,Thomas Cook Airlines Uk Ltd.
21281,BRQ,Thomas Cook Airlines Uk Ltd.
21287,THO,Thorson Aviation
21294,KI,Time Air Ltd.
21302,HK,Time Air Sweden Ab
21306,02Q,Titan Airways
21308,FF,Tower Air Inc.
21309,TSQ,TPI International Airways
21312,04Q,Tradewind Aviation
21317,WI,Tradewinds Airlines
21323,IKQ,Tradewinds Airways Ltd.
21326,TGQ,Tranps Aereos Guatemaltecos
21331,TXE,Trans Air (Hawaii)
21342,TGO,Trans Air Cargo Inc.
21346,TIA,Trans Air Inc.
21351,ECQ,Trans American Charter
21352,TCI,Trans California Airlines
21356,TCA,Trans Catalina Airlines
21361,YB,Trans Continental Airlines
21366,XBD,Trans Continental Airlines
21373,TCQ,Trans Continental Airlines
21376,STF,Trans East International
21382,EFQ,Trans Europ. Airways France
21386,TFQ,Trans International Airlines Inc.
21386,TIE,Trans International Express
21395,TMA,Trans Mo Airlines
21402,AOI,Trans New York
21406,2TQ,Trans Northern Airways d/b/a Air Unlimited Charter Services
21407,TRP,Trans Pennsylvania Airlines
21411,TSI,Trans Sierra Airlines Inc.
21416,PDA,Trans Southern Airways
21421,AX,Trans States Airlines
21423,9N,Trans States Airlines
21427,RAI,Trans States Airlines
21433,TWA,Trans Western Airlines Utah
21433,TW,Trans World Airlines Inc.
21434,TW,Trans World Airways LLC
21434,TWE,Trans World Express
21437,UN,Transaero Airlines
21438,TKQ,Trans-Air-Link Corporation
21438,TV,Transamerica Airlines Inc.
21439,HVQ,Transavia Holland B. V.
21440,TR,Transbrasil S.A.
21447,TDQ,Transcarga
21452,TCL,Trans-Central Airlines Inc.
21463,TCO,Trans-Colorado Airlines
21467,FB,Translift Airways Limited
21477,LXQ,Translux Intl Airlines
21477,TLQ,Trans-Mediterranean Airways
21487,KKQ,Transmeridian Air Cargo Ltd.
21492,T9,TransMeridian Airlines
21492,TH,Transmile Air Service
21503,HRA,Trans-National Airlines Haw
21507,BOQ,Transp. Aereos Bolivianos
21512,GD,Transp. Aereos Ejecutivos
21518,TEQ,Transp. Aereos Ejecutivos
21522,VR,Transportes Aereos De Cabo
21528,QT,Transportes Aereos Mercantiles Panamericanos S.A
21532,TMQ,Transportes Aereos Mercantiles Panamericanos S.A
21548,TX,Transportes Aereos Nacional
21549,VW,Transportes Aeromar S.A de C.V
21552,JJ,Transportes Aeros Meridiona
21557,MC,Transtar Airlines Corp.
21562,TNS,Transtate Aviation
21567,TRQ,Transwede Airways Ab
21568,ACW,Transwest Air Express
21569,QS,Travel Service, a.s. d/b/a SmartWings
21569,TVL,Travelair
21570,9T,TravelspanGT, Inc. S.A.
21573,TAF,Tri Air Freight
21574,TBQ,Triair Bermuda Flt Operations
21577,T3,Tristar Airlines Inc.
21578,TFZ,Tri-State Airlines Inc.
21579,2LQ,Tropic Ocean Airways LLC
21580,GG,Tropical Airways Inc.
21582,THA,Tropical Helicopter Airways
21587,RIA,Trump Air
21589,TB,Trump Shuttle
21590,TB,TUI Airlines Belgium N.V. d/b/a Jetairfly
21592,OR,TUI Airlines Nederland B.V.
21594,6B,TUIfly Nordic A.B.
21594,TUL,Tulsair Beechcraft Inc.
21596,TK,Turk Hava Yollari A.O.
21597,KTQ,Turks Air Ltd.
21598,BHQ,Turks Air Ltd.
21599,TUR,Turner Aire
21601,1MQ,Twin Cities Air Service LLC
21605,TIQ,Tyrolean Jet Service
21607,U2,UFS Inc.
21608,PS,Ukraine International Airlines
21610,1WQ,Ultimate JetCharters LLC dba Ultimate Air Shuttle
21611,RL,UltrAir
21611,12Q,Unijet
21613,UT,Union De Transports Aeriens
21614,UA,United Air Lines Inc.
21615,5X,United Parcel Service
21618,XBE,United Parcel Service
21618,UTQ,Universal Airlines Inc.
21623,UAI,Universal Airways Inc.
21624,US,US Airways Inc.
21626,UH,US Helicopter Corporation
21629,U5,USA 3000 Airlines
21630,USQ,USA 3000 Airlines
21631,U7,USA Jet Airlines Inc.
21634,E8,USAfrica Airways Inc.
21635,AL,USAir
21635,US,USAir
21635,TB,USAir Shuttle
21635,HY,Uzbekistan Airways
21636,VAQ,Vacationair
21638,VAG,Vagabond Aviation Inc.
21645,VEZ,Valdez Airlines
21645,VIN,Vale International Airlines
21646,2U,Valley Air Express Inc.
21648,VAS,Valley Air Services
21649,VLY,Valley Airlines
21650,J7,Valujet Airlines Inc.
21651,NJ,Vanguard Airlines Inc.
21652,LC,Varig Logistica S/A
21653,RG,Varig S. A.
21655,TDQ,Venexcargo
21656,VA,Venezuelan International Airways
21657,V4,Vensecar International
21659,H7,Venture Travel LLC d/b/a Taquan Air Service
21660,K3,Venture Travel LLC d/b/a Taquan Air Service
21667,TQA,Venture Travel LLC d/b/a Taquan Air Service
21670,1AQ,Via Airlines d/b/a Charter Air Transport
21670,VP,Viacao Aerea Sao Paulo
21672,VCQ,Victory Air Transport Inc.
21673,VI,Vieques Air Link Inc.
21674,VAL,Vieques Air Link Inc.
21677,VNA,Vietnam Airline
21692,VIG,Viking Express
21693,CGL,Viking International Airlines Inc.
21694,VLA,Village Aviation
21697,VQ,Vintage Props & Jets Inc.
21702,VPJ,Vintage Props & Jets Inc.
21707,VX,Virgin America
21712,VS,Virgin Atlantic Airways
21718,VA,Virgin Blue International Airlines t/a V Australia
21728,VIS,Virgin Islands Seaplane
21733,VIQ,Viscount Air Service Inc.
21735,0JQ,Vision Airlines
21738,VJT,VistaJet Limited
21743,VSA,VistaJet Luftfahrtunternehmen GmbH
21745,XF,Vladivostok Air
21749,VI,Volga-Dnepr Airlines
21754,VIQ,Volga-Dnepr Airlines
21760,WGT,Volkswagen AirSevice GmbH dba Volkswagon
21764,G3,VRG Linhas Aereas S A
21770,Q6,Vuela Aviacion, S.A.
21774,WCA,Walker's International
21780,EB,WAMOS AIR SA
21781,4W,Warbelow
21785,WAL,Warbelow
21809,WRD,Ward Air
21814,WDQ,Wardair Canada Inc.
21820,WAR,Waring Air
21820,WLH,Welch Aviation
21821,WST,West Isle Air
21823,BAT,West Penn Commuter
21835,OE,Westair Airlines Inc.
21854,STL,Westair Airlines Inc.
21860,WTA,Westates Airlines
21864,3FQ,Western Air Charter, Inc.  d/b/a  Jet Edge
21869,WA,Western Air Lines Inc.
21875,WET,Western Charter Inc.
21879,KD,Western Global
21889,W7,Western Pacific Airlines
21894,WES,Western Star Airlines Inc.
21909,WFT,Westflight Aviation
21919,WS,Westjet
21924,WR,WestJet Encore Ltd.
21934,WAW,Westward Airways Inc.
21939,WFS,Wheeler Airlines
21944,WC,Wien Air Alaska Inc.
21949,8F,Wilburs Inc.
21954,WLB,Wilburs Inc.
21959,WIR,Williams Air Inc.
21964,WIL,Will's Air
21969,WNQ,Winair Inc.
21974,WM,Windward Islands Airways
21979,WNG,Wings Airways
21985,WOA,Wings Of Alaska
21995,K5,Wings Of Alaska
22001,WWI,Wings West Airlines
22002,ZMZ,Winnipesaukee Aviation Inc.
22005,WOQ,Winnport Logistics
22010,WIA,Wisc Air
22016,WAI,Wise Airlines Inc.
22020,WL,World Air Network
22025,WO,World Airways Inc.
22030,WWQ,Worldways Canada Ltd.
22035,WLQ,Worldwide Airlines Inc.
22035,WA,Worldwide Airlines Services
22036,WW,WOW Air ehf
22036,WRA,Wra Inc.
22041,WGL,Wrangell Air Service
22043,BUQ,Wrangler Aviation Inc.
22048,XBY,Wrangler Aviation Inc.
22051,WAS,Wright Air Service
22052,8V,Wright Air Service
22057,WRT,Wright Airlines Inc.
22061,XBF,WTC Airlines
22062,MF,Xiamen Airlines Co., Ltd.
22066,SE,XL Airways France
22067,XP,XTRA Airways
22068,Y8,Yangtze River Express Airlines Company
22069,YBQ,Yellow Bird Air
22070,TAS,Yosemite Airlines Inc.
22071,FBI,Young Flying Service
22072,JU,Yugoslav Airlines
22073,4Y,Yute Air Aka Flight Alaska
22074,YUT,Yute Air Aka Flight Alaska
22075,Q2,Zambia Airways Corp.
22076,ZKQ,Zantop International
22077,ZAQ,Zas Airline Of Egypt
22078,37,Zeal 320
22079,ZG,ZIPAIR Tokyo Inc.
22080,ZUQ,Zuliana De Aviacion
